24548,09-Feb-19,1
23463,31-Mar-19,2
5980,24-Aug-19,3
18454,17-Apr-19,4
24384,07-Jan-19,5
2168,25-Mar-19,6
18700,17-Nov-19,7
8677,23-Jun-19,8
9024,12-Jun-19,9
23713,20-May-19,10
26383,09-Feb-19,11
17303,26-Oct-19,12
5474,09-Nov-19,13
31049,25-Apr-19,14
25287,25-Jul-19,15
10375,25-Dec-18,16
30034,18-Dec-18,17
31471,08-Jul-19,18
30758,27-Nov-19,19
27224,09-Mar-19,20
18523,03-Jan-19,21
18461,08-Oct-19,22
493,06-Apr-19,23
14612,20-Mar-19,24
19678,09-Sep-19,25
7867,07-Nov-19,26
21077,20-Apr-19,27
3563,05-Jan-19,28
22590,26-Jul-19,29
24650,17-Jan-19,30
6864,19-Nov-19,31
14369,28-Jan-19,32
15344,01-May-19,33
12843,25-May-19,34
54,27-Jul-19,35
6959,06-Feb-19,36
15010,06-Jan-19,37
18753,10-Jun-19,38
15636,03-Jan-19,39
24033,11-Nov-19,40
9697,16-Mar-19,41
9250,01-Jun-19,42
8568,12-Jul-19,43
15171,04-Oct-19,44
7530,20-May-19,45
1086,29-May-19,46
25545,08-Aug-19,47
4795,23-Feb-19,48
32556,01-Nov-19,49
23534,13-Apr-19,50
32018,21-Jun-19,51
18310,28-Apr-19,52
9226,09-Feb-19,53
32511,19-Feb-19,54
153,09-Mar-19,55
28904,14-Sep-19,56
7609,16-Oct-19,57
21230,20-Sep-19,58
32466,16-May-19,59
30198,16-Oct-19,60
13111,09-May-19,61
6561,28-Mar-19,62
11798,01-Mar-19,63
28454,29-Dec-18,64
19404,19-Jun-19,65
11851,22-Mar-19,66
2644,16-Nov-19,67
1645,24-May-19,68
30604,09-Apr-19,69
18279,25-Jun-19,70
25678,01-Feb-19,71
7532,19-Oct-19,72
27529,13-Jun-19,73
1477,13-Apr-19,74
22702,23-Mar-19,75
2290,24-Apr-19,76
2562,25-Jul-19,77
15478,16-Jun-19,78
7085,24-Jul-19,79
2349,23-Jan-19,80
6243,24-Nov-19,81
6334,23-Dec-18,82
20658,25-Jul-19,83
15469,11-May-19,84
6076,07-Dec-18,85
20810,04-May-19,86
11604,29-Aug-19,87
13685,30-Aug-19,88
9271,13-Sep-19,89
11301,08-Oct-19,90
11114,23-Jul-19,91
22381,28-Jul-19,92
17861,10-Dec-18,93
22912,04-Feb-19,94
18066,26-Jan-19,95
4496,03-May-19,96
1994,07-Sep-19,97
20710,30-May-19,98
6141,30-Aug-19,99
32597,10-Dec-18,100
