09-Oct-19,1
05-Sep-19,2
13-Nov-19,3
22-Mar-19,4
21-Nov-19,5
25-Jan-19,6
28-Nov-19,7
24-Dec-18,8
14-Aug-19,9
22-Apr-19,10
01-Nov-19,11
24-Aug-19,12
30-Aug-19,13
19-Dec-18,14
26-May-19,15
30-Jul-19,16
20-Feb-19,17
02-Jul-19,18
14-Feb-19,19
21-Nov-19,20
03-May-19,21
15-Jun-19,22
27-Jul-19,23
10-Feb-19,24
22-Aug-19,25
28-Jun-19,26
14-Aug-19,27
25-Nov-19,28
12-Jul-19,29
21-Feb-19,30
07-May-19,31
05-Aug-19,32
01-Mar-19,33
29-Jul-19,34
26-Sep-19,35
21-Aug-19,36
03-Jun-19,37
21-Jun-19,38
23-Aug-19,39
05-Aug-19,40
09-Sep-19,41
21-Aug-19,42
28-Sep-19,43
25-Sep-19,44
31-Aug-19,45
20-Aug-19,46
29-May-19,47
29-Sep-19,48
21-Oct-19,49
28-May-19,50
05-Aug-19,51
05-Sep-19,52
10-Sep-19,53
30-Mar-19,54
27-Aug-19,55
27-Nov-19,56
03-Feb-19,57
16-Mar-19,58
05-Jun-19,59
12-Jul-19,60
11-Sep-19,61
17-Feb-19,62
25-May-19,63
24-Jan-19,64
03-Sep-19,65
30-Jan-19,66
17-Oct-19,67
04-Jun-19,68
09-Jan-19,69
04-Jan-19,70
29-May-19,71
24-May-19,72
29-Apr-19,73
07-Mar-19,74
09-Oct-19,75
11-Aug-19,76
29-Nov-19,77
29-Aug-19,78
06-Oct-19,79
08-Apr-19,80
26-Feb-19,81
20-Dec-18,82
17-Jan-19,83
16-Dec-18,84
21-Nov-19,85
08-Nov-19,86
02-Feb-19,87
14-Mar-19,88
03-Nov-19,89
31-Jan-19,90
11-Sep-19,91
01-Oct-19,92
18-Nov-19,93
14-May-19,94
25-Feb-19,95
24-Feb-19,96
22-Nov-19,97
03-Sep-19,98
10-Mar-19,99
21-Dec-18,100
